#
# A fatal error has been detected by the Java Runtime Environment:
#
#  SIGSEGV (0xb) at pc=0x00007f65f3eafd84, pid=25905, tid=140074294613760
#
# JRE version: OpenJDK Runtime Environment (8.0_91-b14) (build 1.8.0_91-8u91-b14-3ubuntu1~16.04.1-b14)
# Java VM: OpenJDK 64-Bit Server VM (25.91-b14 mixed mode linux-amd64 compressed oops)
# Problematic frame:
# C  [libpthread.so.0+0x9d84]  pthread_mutex_lock+0x4
#
# Failed to write core dump. Core dumps have been disabled. To enable core dumping, try "ulimit -c unlimited" before starting Java again
#
# If you would like to submit a bug report, please visit:
#   http://bugreport.java.com/bugreport/crash.jsp
# The crash happened outside the Java Virtual Machine in native code.
# See problematic frame for where to report the bug.
#

---------------  T H R E A D  ---------------

Current thread (0x00007f6584002000):  JavaThread "AWT-EventQueue-0" [_thread_in_native, id=25936, stack(0x00007f6596829000,0x00007f659692a000)]

siginfo: si_signo: 11 (SIGSEGV), si_code: 128 (SI_KERNEL), si_addr: 0x0000000000000000

Registers:
RAX=0x00007f65f3eafd80, RBX=0x00007f6590069970, RCX=0x000000000000020e, RDX=0x00007f6596926b30
RSP=0x00007f6596926aa0, RBP=0x00007f6596926b10, RSI=0x00007f6596926b20, RDI=0x007373616c632e61
R8 =0x00007f6596926b10, R9 =0x00007f65900667f2, R10=0x00007f65bdd2e447, R11=0x0000000000000065
R12=0x00007f6596926b0c, R13=0x00007f6596926c48, R14=0x00007f657803b200, R15=0x00007f6590007590
RIP=0x00007f65f3eafd84, EFLAGS=0x0000000000010206, CSGSFS=0x0000000000000033, ERR=0x0000000000000000
  TRAPNO=0x000000000000000d

Top of Stack: (sp=0x00007f6596926aa0)
0x00007f6596926aa0:   000000000000020e 00007f65bdcc3bfa
0x00007f6596926ab0:   00007f6596926b20 00007f6596926b30
0x00007f6596926ac0:   00007f65dcbf2a00 00007f6590007590
0x00007f6596926ad0:   00007f657803b200 c56072119be16600
0x00007f6596926ae0:   00007f6590007590 00007f657803b200
0x00007f6596926af0:   00007f6578034340 00007f65bdc9ff86
0x00007f6596926b00:   00007f6578034340 000000000000001c
0x00007f6596926b10:   00007f6578034340 00007f657803b200
0x00007f6596926b20:   000002080000020e 00007f6500000000
0x00007f6596926b30:   0000015500000154 00007f6500000000
0x00007f6596926b40:   00007f6596926c50 c56072119be16600
0x00007f6596926b50:   00007f65840021e0 00007f6596926bb0
0x00007f6596926b60:   00007f6596926c50 00007f65be234445
0x00007f6596926b70:   00007f65dcba1e20 00007f6578034340
0x00007f6596926b80:   0000000000000000 00007f65dcbf2a90
0x00007f6596926b90:   0000000000000000 00007f65dcbf2a90
0x00007f6596926ba0:   00007f6596926c60 00007f6584002000
0x00007f6596926bb0:   00007f6596926c28 00007f65dd017114
0x00007f6596926bc0:   00007f65dcbf2a90 00007f6596926c60
0x00007f6596926bd0:   00007f6596926c28 00007f65dd016ea7
0x00007f6596926be0:   00007f65dd016e62 00007f6596926be8
0x00007f6596926bf0:   00007f65dcbf2a90 00007f6596926c60
0x00007f6596926c00:   00007f65dcbf6c88 0000000000000000
0x00007f6596926c10:   00007f65dcbf2a90 0000000000000000
0x00007f6596926c20:   00007f6596926c48 00007f6596926ca8
0x00007f6596926c30:   00007f65dd007d80 00000000d6e1bfb8
0x00007f6596926c40:   00007f65dd01127b 00000000d73866d8
0x00007f6596926c50:   00000000d6b62ee8 00007f6590007590
0x00007f6596926c60:   00007f65dd007b10 00007f6596926c68
0x00007f6596926c70:   00007f65dcbb5d3c 00007f6596926cc0
0x00007f6596926c80:   00007f65dcbc52b0 0000000000000000
0x00007f6596926c90:   00007f65dcbb5df8 00007f6596926c48 

Instructions: (pc=0x00007f65f3eafd84)
0x00007f65f3eafd64:   f0 02 00 00 00 00 00 00 b8 82 00 00 00 e9 d8 f9
0x00007f65f3eafd74:   ff ff 66 2e 0f 1f 84 00 00 00 00 00 48 83 ec 08
0x00007f65f3eafd84:   8b 57 10 89 d1 81 e1 7f 01 00 00 90 89 d0 83 e0
0x00007f65f3eafd94:   7c 0f 85 95 00 00 00 85 c9 49 89 f8 0f 85 9a 00 

Register to memory mapping:

RAX=0x00007f65f3eafd80: pthread_mutex_lock+0 in /lib/x86_64-linux-gnu/libpthread.so.0 at 0x00007f65f3ea6000
RBX=0x00007f6590069970 is an unknown value
RCX=0x000000000000020e is an unknown value
RDX=0x00007f6596926b30 is pointing into the stack for thread: 0x00007f6584002000
RSP=0x00007f6596926aa0 is pointing into the stack for thread: 0x00007f6584002000
RBP=0x00007f6596926b10 is pointing into the stack for thread: 0x00007f6584002000
RSI=0x00007f6596926b20 is pointing into the stack for thread: 0x00007f6584002000
RDI=0x007373616c632e61 is an unknown value
R8 =0x00007f6596926b10 is pointing into the stack for thread: 0x00007f6584002000
R9 =0x00007f65900667f2 is an unknown value
R10=0x00007f65bdd2e447: <offset 0xb0447> in /usr/lib/x86_64-linux-gnu/libX11.so.6 at 0x00007f65bdc7e000
R11=0x0000000000000065 is an unknown value
R12=0x00007f6596926b0c is pointing into the stack for thread: 0x00007f6584002000
R13=0x00007f6596926c48 is pointing into the stack for thread: 0x00007f6584002000
R14=0x00007f657803b200 is an unknown value
R15=0x00007f6590007590 is an unknown value


Stack: [0x00007f6596829000,0x00007f659692a000],  sp=0x00007f6596926aa0,  free space=1014k
Native frames: (J=compiled Java code, j=interpreted, Vv=VM code, C=native code)
C  [libpthread.so.0+0x9d84]  pthread_mutex_lock+0x4
C  0x00007f657803b200

Java frames: (J=compiled Java code, j=interpreted, Vv=VM code)
j  sun.awt.X11.XlibWrapper.XGetDefault(JLjava/lang/String;Ljava/lang/String;)Ljava/lang/String;+0
j  sun.awt.X11.XToolkit.initializeMultiClickTime()V+12
j  sun.awt.X11.XToolkit.getMultiClickTime()I+6
j  sun.awt.X11.XToolkit.initializeDesktopProperties()V+82
j  java.awt.Toolkit.getDesktopProperty(Ljava/lang/String;)Ljava/lang/Object;+32
j  sun.awt.X11.XToolkit.isRightMouseButton(Ljava/awt/event/MouseEvent;)Z+6
j  sun.awt.X11.XBaseMenuWindow.doHandleJavaMouseEvent(Ljava/awt/event/MouseEvent;)V+8
j  sun.awt.X11.XPopupMenuPeer.handleEvent(Ljava/awt/AWTEvent;)V+93
j  sun.awt.X11.XBaseMenuWindow$3.run()V+8
j  java.awt.event.InvocationEvent.dispatch()V+47
j  java.awt.EventQueue.dispatchEventImpl(Ljava/awt/AWTEvent;Ljava/lang/Object;)V+21
j  java.awt.EventQueue.access$500(Ljava/awt/EventQueue;Ljava/awt/AWTEvent;Ljava/lang/Object;)V+3
j  java.awt.EventQueue$3.run()Ljava/lang/Void;+32
j  java.awt.EventQueue$3.run()Ljava/lang/Object;+1
v  ~StubRoutines::call_stub
j  java.security.AccessController.doPrivileged(Ljava/security/PrivilegedAction;Ljava/security/AccessControlContext;)Ljava/lang/Object;+0
j  java.security.ProtectionDomain$JavaSecurityAccessImpl.doIntersectionPrivilege(Ljava/security/PrivilegedAction;Ljava/security/AccessControlContext;Ljava/security/AccessControlContext;)Ljava/lang/Object;+18
j  java.security.ProtectionDomain$JavaSecurityAccessImpl.doIntersectionPrivilege(Ljava/security/PrivilegedAction;Ljava/security/AccessControlContext;)Ljava/lang/Object;+6
j  java.awt.EventQueue$4.run()Ljava/lang/Void;+11
j  java.awt.EventQueue$4.run()Ljava/lang/Object;+1
v  ~StubRoutines::call_stub
j  java.security.AccessController.doPrivileged(Ljava/security/PrivilegedAction;Ljava/security/AccessControlContext;)Ljava/lang/Object;+0
j  java.security.ProtectionDomain$JavaSecurityAccessImpl.doIntersectionPrivilege(Ljava/security/PrivilegedAction;Ljava/security/AccessControlContext;Ljava/security/AccessControlContext;)Ljava/lang/Object;+18
j  java.awt.EventQueue.dispatchEvent(Ljava/awt/AWTEvent;)V+73
j  java.awt.EventDispatchThread.pumpOneEventForFilters(I)V+245
j  java.awt.EventDispatchThread.pumpEventsForFilter(ILjava/awt/Conditional;Ljava/awt/EventFilter;)V+35
j  java.awt.EventDispatchThread.pumpEventsForHierarchy(ILjava/awt/Conditional;Ljava/awt/Component;)V+11
j  java.awt.EventDispatchThread.pumpEvents(ILjava/awt/Conditional;)V+4
j  java.awt.EventDispatchThread.pumpEvents(Ljava/awt/Conditional;)V+3
j  java.awt.EventDispatchThread.run()V+9
v  ~StubRoutines::call_stub

---------------  P R O C E S S  ---------------

Java Threads: ( => current thread )
  0x00007f659009f000 JavaThread "Thread-6" daemon [_thread_blocked, id=25937, stack(0x00007f6596528000,0x00007f6596629000)]
=>0x00007f6584002000 JavaThread "AWT-EventQueue-0" [_thread_in_native, id=25936, stack(0x00007f6596829000,0x00007f659692a000)]
  0x00007f6590081000 JavaThread "AWT-Shutdown" [_thread_blocked, id=25935, stack(0x00007f659692a000,0x00007f6596a2b000)]
  0x00007f65ec29f800 JavaThread "Thread-5" daemon [_thread_in_native, id=25934, stack(0x00007f6596a2b000,0x00007f6596b2c000)]
  0x00007f6588021800 JavaThread "JNativeHook Dispatch Thread" daemon [_thread_blocked, id=25933, stack(0x00007f6596b2c000,0x00007f6596c2d000)]
  0x00007f65ec288800 JavaThread "JNativeHook Hook Thread" [_thread_in_native, id=25932, stack(0x00007f6596c2d000,0x00007f6596d2e000)]
  0x00007f659006e800 JavaThread "AWT-XAWT" daemon [_thread_in_native, id=25927, stack(0x00007f65979e5000,0x00007f6597ae6000)]
  0x00007f6590056000 JavaThread "Java2D Disposer" daemon [_thread_blocked, id=25926, stack(0x00007f6597eff000,0x00007f6598000000)]
  0x00007f65ec0c5000 JavaThread "Service Thread" daemon [_thread_blocked, id=25923, stack(0x00007f65be8a9000,0x00007f65be9aa000)]
  0x00007f65ec0b5800 JavaThread "C1 CompilerThread2" daemon [_thread_blocked, id=25922, stack(0x00007f65be9aa000,0x00007f65beaab000)]
  0x00007f65ec0b4000 JavaThread "C2 CompilerThread1" daemon [_thread_blocked, id=25921, stack(0x00007f65beaab000,0x00007f65bebac000)]
  0x00007f65ec0b1000 JavaThread "C2 CompilerThread0" daemon [_thread_blocked, id=25920, stack(0x00007f65bebac000,0x00007f65becad000)]
  0x00007f65ec0af000 JavaThread "Signal Dispatcher" daemon [_thread_blocked, id=25919, stack(0x00007f65becad000,0x00007f65bedae000)]
  0x00007f65ec087800 JavaThread "Finalizer" daemon [_thread_blocked, id=25918, stack(0x00007f65bf08c000,0x00007f65bf18d000)]
  0x00007f65ec083000 JavaThread "Reference Handler" daemon [_thread_blocked, id=25917, stack(0x00007f65bf18d000,0x00007f65bf28e000)]
  0x00007f65ec00a000 JavaThread "main" [_thread_blocked, id=25909, stack(0x00007f65f4bf1000,0x00007f65f4cf2000)]

Other Threads:
  0x00007f65ec07b800 VMThread [stack: 0x00007f65bf28e000,0x00007f65bf38f000] [id=25916]
  0x00007f65ec0c7800 WatcherThread [stack: 0x00007f65be7a8000,0x00007f65be8a9000] [id=25924]

VM state:not at safepoint (normal execution)

VM Mutex/Monitor currently owned by a thread: None

Heap:
 PSYoungGen      total 36864K, used 8890K [0x00000000d6b00000, 0x00000000d9400000, 0x0000000100000000)
  eden space 31744K, 28% used [0x00000000d6b00000,0x00000000d73ae878,0x00000000d8a00000)
  from space 5120K, 0% used [0x00000000d8f00000,0x00000000d8f00000,0x00000000d9400000)
  to   space 5120K, 0% used [0x00000000d8a00000,0x00000000d8a00000,0x00000000d8f00000)
 ParOldGen       total 84992K, used 0K [0x0000000084000000, 0x0000000089300000, 0x00000000d6b00000)
  object space 84992K, 0% used [0x0000000084000000,0x0000000084000000,0x0000000089300000)
 Metaspace       used 10800K, capacity 10962K, committed 11136K, reserved 1058816K
  class space    used 1233K, capacity 1317K, committed 1408K, reserved 1048576K

Card table byte_map: [0x00007f65f0e65000,0x00007f65f1246000] byte_map_base: 0x00007f65f0a45000

Marking Bits: (ParMarkBitMap*) 0x00007f65f3e82fc0
 Begin Bits: [0x00007f65c0200000, 0x00007f65c2100000)
 End Bits:   [0x00007f65c2100000, 0x00007f65c4000000)

Polling page: 0x00007f65f4bf0000

CodeCache: size=245760Kb used=2279Kb max_used=2280Kb free=243480Kb
 bounds [0x00007f65dd000000, 0x00007f65dd270000, 0x00007f65ec000000]
 total_blobs=1082 nmethods=549 adapters=449
 compilation: enabled

Compilation events (10 events):
Event: 2.552 Thread 0x00007f65ec0b5800  542       3       java.nio.Buffer::position (43 bytes)
Event: 2.552 Thread 0x00007f65ec0b5800 nmethod 542 0x00007f65dd237910 code [0x00007f65dd237a80, 0x00007f65dd237d48]
Event: 2.553 Thread 0x00007f65ec0b5800  543       3       sun.misc.SharedSecrets::getJavaLangAccess (4 bytes)
Event: 2.554 Thread 0x00007f65ec0b5800 nmethod 543 0x00007f65dd2356d0 code [0x00007f65dd235820, 0x00007f65dd235950]
Event: 2.554 Thread 0x00007f65ec0b5800  544       3       java.nio.channels.spi.AbstractInterruptibleChannel::blockedOn (13 bytes)
Event: 2.554 Thread 0x00007f65ec0b5800 nmethod 544 0x00007f65dd237090 code [0x00007f65dd237220, 0x00007f65dd237710]
Event: 2.560 Thread 0x00007f65ec0b5800  545       3       java.io.ByteArrayOutputStream::ensureCapacity (16 bytes)
Event: 2.560 Thread 0x00007f65ec0b5800 nmethod 545 0x00007f65dd236910 code [0x00007f65dd236a80, 0x00007f65dd236c48]
Event: 2.560 Thread 0x00007f65ec0b5800  546  s    3       java.io.ByteArrayOutputStream::write (32 bytes)
Event: 2.560 Thread 0x00007f65ec0b5800 nmethod 546 0x00007f65dd23ad10 code [0x00007f65dd23aea0, 0x00007f65dd23b288]

GC Heap History (0 events):
No events

Deoptimization events (0 events):
No events

Internal exceptions (10 events):
Event: 0.072 Thread 0x00007f65ec00a000 Exception <a 'java/security/PrivilegedActionException'> (0x00000000d6c44c00) thrown at [/build/openjdk-8-W1Ghxo/openjdk-8-8u91-b14/src/hotspot/src/share/vm/prims/jvm.cpp, line 1386]
Event: 0.072 Thread 0x00007f65ec00a000 Exception <a 'java/security/PrivilegedActionException'> (0x00000000d6c44e10) thrown at [/build/openjdk-8-W1Ghxo/openjdk-8-8u91-b14/src/hotspot/src/share/vm/prims/jvm.cpp, line 1386]
Event: 0.072 Thread 0x00007f65ec00a000 Exception <a 'java/security/PrivilegedActionException'> (0x00000000d6c458e0) thrown at [/build/openjdk-8-W1Ghxo/openjdk-8-8u91-b14/src/hotspot/src/share/vm/prims/jvm.cpp, line 1386]
Event: 0.072 Thread 0x00007f65ec00a000 Exception <a 'java/security/PrivilegedActionException'> (0x00000000d6c45af0) thrown at [/build/openjdk-8-W1Ghxo/openjdk-8-8u91-b14/src/hotspot/src/share/vm/prims/jvm.cpp, line 1386]
Event: 0.120 Thread 0x00007f65ec00a000 Exception <a 'java/lang/NoSuchFieldError': method resolution failed> (0x00000000d6d13278) thrown at [/build/openjdk-8-W1Ghxo/openjdk-8-8u91-b14/src/hotspot/src/share/vm/prims/methodHandles.cpp, line 1146]
Event: 0.122 Thread 0x00007f65ec00a000 Exception <a 'java/lang/NoSuchFieldError': method resolution failed> (0x00000000d6d20a78) thrown at [/build/openjdk-8-W1Ghxo/openjdk-8-8u91-b14/src/hotspot/src/share/vm/prims/methodHandles.cpp, line 1146]
Event: 0.142 Thread 0x00007f65ec00a000 Exception <a 'java/io/FileNotFoundException'> (0x00000000d6d9eba8) thrown at [/build/openjdk-8-W1Ghxo/openjdk-8-8u91-b14/src/hotspot/src/share/vm/prims/jni.cpp, line 709]
Event: 0.142 Thread 0x00007f65ec00a000 Exception <a 'java/io/FileNotFoundException'> (0x00000000d6d9f5a0) thrown at [/build/openjdk-8-W1Ghxo/openjdk-8-8u91-b14/src/hotspot/src/share/vm/prims/jni.cpp, line 709]
Event: 0.160 Thread 0x00007f65ec21d800 Exception <a 'java/lang/ClassNotFoundException': sun/dc/DuctusRenderingEngine> (0x00000000d6e21ac0) thrown at [/build/openjdk-8-W1Ghxo/openjdk-8-8u91-b14/src/hotspot/src/share/vm/classfile/systemDictionary.cpp, line 210]
Event: 0.240 Thread 0x00007f65ec29f800 Exception <a 'sun/nio/fs/UnixException'> (0x00000000d7133af8) thrown at [/build/openjdk-8-W1Ghxo/openjdk-8-8u91-b14/src/hotspot/src/share/vm/prims/jni.cpp, line 709]

Events (10 events):
Event: 2.554 loading class sun/awt/X11/XWindowAttributes
Event: 2.554 loading class sun/awt/X11/XWindowAttributes done
Event: 2.558 loading class sun/awt/X11/XBaseMenuWindow$3
Event: 2.558 loading class sun/awt/X11/XBaseMenuWindow$3 done
Event: 2.558 loading class sun/java2d/loops/FontInfo
Event: 2.558 loading class sun/java2d/loops/FontInfo done
Event: 2.559 loading class sun/font/XRGlyphCacheEntry
Event: 2.559 loading class sun/font/XRGlyphCacheEntry done
Event: 2.559 loading class java/lang/StrictMath
Event: 2.559 loading class java/lang/StrictMath done


Dynamic libraries:
00400000-00401000 r-xp 00000000 08:01 10355398                           /usr/lib/jvm/java-8-openjdk-amd64/jre/bin/java
00600000-00601000 r--p 00000000 08:01 10355398                           /usr/lib/jvm/java-8-openjdk-amd64/jre/bin/java
00601000-00602000 rw-p 00001000 08:01 10355398                           /usr/lib/jvm/java-8-openjdk-amd64/jre/bin/java
01861000-01882000 rw-p 00000000 00:00 0                                  [heap]
84000000-89300000 rw-p 00000000 00:00 0 
89300000-d6b00000 ---p 00000000 00:00 0 
d6b00000-d9400000 rw-p 00000000 00:00 0 
d9400000-100000000 ---p 00000000 00:00 0 
100000000-100160000 rw-p 00000000 00:00 0 
100160000-140000000 ---p 00000000 00:00 0 
7f656c000000-7f656c021000 rw-p 00000000 00:00 0 
7f656c021000-7f6570000000 ---p 00000000 00:00 0 
7f6574000000-7f6574021000 rw-p 00000000 00:00 0 
7f6574021000-7f6578000000 ---p 00000000 00:00 0 
7f6578000000-7f657803c000 rw-p 00000000 00:00 0 
7f657803c000-7f657c000000 ---p 00000000 00:00 0 
7f657c000000-7f657c021000 rw-p 00000000 00:00 0 
7f657c021000-7f6580000000 ---p 00000000 00:00 0 
7f6580000000-7f6580021000 rw-p 00000000 00:00 0 
7f6580021000-7f6584000000 ---p 00000000 00:00 0 
7f6584000000-7f6584021000 rw-p 00000000 00:00 0 
7f6584021000-7f6588000000 ---p 00000000 00:00 0 
7f6588000000-7f6588029000 rw-p 00000000 00:00 0 
7f6588029000-7f658c000000 ---p 00000000 00:00 0 
7f658c000000-7f658c021000 rw-p 00000000 00:00 0 
7f658c021000-7f6590000000 ---p 00000000 00:00 0 
7f6590000000-7f65900a9000 rw-p 00000000 00:00 0 
7f65900a9000-7f6594000000 ---p 00000000 00:00 0 
7f6596528000-7f659652b000 ---p 00000000 00:00 0 
7f659652b000-7f65967a9000 rw-p 00000000 00:00 0 
7f65967a9000-7f6596829000 ---p 00000000 00:00 0 
7f6596829000-7f659682c000 ---p 00000000 00:00 0 
7f659682c000-7f659692a000 rw-p 00000000 00:00 0 
7f659692a000-7f659692d000 ---p 00000000 00:00 0 
7f659692d000-7f6596a2b000 rw-p 00000000 00:00 0 
7f6596a2b000-7f6596a2e000 ---p 00000000 00:00 0 
7f6596a2e000-7f6596b2c000 rw-p 00000000 00:00 0 
7f6596b2c000-7f6596b2f000 ---p 00000000 00:00 0 
7f6596b2f000-7f6596c2d000 rw-p 00000000 00:00 0 
7f6596c2d000-7f6596c30000 ---p 00000000 00:00 0 
7f6596c30000-7f6596d2e000 rw-p 00000000 00:00 0 
7f6596d2e000-7f6596d32000 r-xp 00000000 08:01 5378534                    /lib/x86_64-linux-gnu/libuuid.so.1.3.0
7f6596d32000-7f6596f31000 ---p 00004000 08:01 5378534                    /lib/x86_64-linux-gnu/libuuid.so.1.3.0
7f6596f31000-7f6596f32000 r--p 00003000 08:01 5378534                    /lib/x86_64-linux-gnu/libuuid.so.1.3.0
7f6596f32000-7f6596f33000 rw-p 00004000 08:01 5378534                    /lib/x86_64-linux-gnu/libuuid.so.1.3.0
7f6596f36000-7f6596f4c000 r-xp 00000000 08:01 10232074                   /usr/lib/x86_64-linux-gnu/libICE.so.6.3.0
7f6596f4c000-7f659714b000 ---p 00016000 08:01 10232074                   /usr/lib/x86_64-linux-gnu/libICE.so.6.3.0
7f659714b000-7f659714c000 r--p 00015000 08:01 10232074                   /usr/lib/x86_64-linux-gnu/libICE.so.6.3.0
7f659714c000-7f659714d000 rw-p 00016000 08:01 10232074                   /usr/lib/x86_64-linux-gnu/libICE.so.6.3.0
7f659714d000-7f6597150000 rw-p 00000000 00:00 0 
7f6597156000-7f659715d000 r-xp 00000000 08:01 10232208                   /usr/lib/x86_64-linux-gnu/libSM.so.6.0.1
7f659715d000-7f659735c000 ---p 00007000 08:01 10232208                   /usr/lib/x86_64-linux-gnu/libSM.so.6.0.1
7f659735c000-7f659735d000 r--p 00006000 08:01 10232208                   /usr/lib/x86_64-linux-gnu/libSM.so.6.0.1
7f659735d000-7f659735e000 rw-p 00007000 08:01 10232208                   /usr/lib/x86_64-linux-gnu/libSM.so.6.0.1
7f659735e000-7f65973c0000 r-xp 00000000 08:01 10232253                   /usr/lib/x86_64-linux-gnu/libXt.so.6.0.0
7f65973c0000-7f65975c0000 ---p 00062000 08:01 10232253                   /usr/lib/x86_64-linux-gnu/libXt.so.6.0.0
7f65975c0000-7f65975c1000 r--p 00062000 08:01 10232253                   /usr/lib/x86_64-linux-gnu/libXt.so.6.0.0
7f65975c1000-7f65975c6000 rw-p 00063000 08:01 10232253                   /usr/lib/x86_64-linux-gnu/libXt.so.6.0.0
7f65975c6000-7f65975c7000 rw-p 00000000 00:00 0 
7f65975ce000-7f65975d0000 r-xp 00000000 08:01 10232239                   /usr/lib/x86_64-linux-gnu/libXinerama.so.1.0.0
7f65975d0000-7f65977cf000 ---p 00002000 08:01 10232239                   /usr/lib/x86_64-linux-gnu/libXinerama.so.1.0.0
7f65977cf000-7f65977d0000 r--p 00001000 08:01 10232239                   /usr/lib/x86_64-linux-gnu/libXinerama.so.1.0.0
7f65977d0000-7f65977d1000 rw-p 00002000 08:01 10232239                   /usr/lib/x86_64-linux-gnu/libXinerama.so.1.0.0
7f65977d6000-7f65977e1000 r-xp 00000000 08:01 2883592                    /tmp/libJNativeHook-2.0.3.so
7f65977e1000-7f65979e0000 ---p 0000b000 08:01 2883592                    /tmp/libJNativeHook-2.0.3.so
7f65979e0000-7f65979e1000 r--p 0000a000 08:01 2883592                    /tmp/libJNativeHook-2.0.3.so
7f65979e1000-7f65979e2000 rw-p 0000b000 08:01 2883592                    /tmp/libJNativeHook-2.0.3.so
7f65979e5000-7f65979e8000 ---p 00000000 00:00 0 
7f65979e8000-7f6597ae6000 rw-p 00000000 00:00 0 
7f6597ae6000-7f6597aeb000 r-xp 00000000 08:01 10232231                   /usr/lib/x86_64-linux-gnu/libXfixes.so.3.1.0
7f6597aeb000-7f6597cea000 ---p 00005000 08:01 10232231                   /usr/lib/x86_64-linux-gnu/libXfixes.so.3.1.0
7f6597cea000-7f6597ceb000 r--p 00004000 08:01 10232231                   /usr/lib/x86_64-linux-gnu/libXfixes.so.3.1.0
7f6597ceb000-7f6597cec000 rw-p 00005000 08:01 10232231                   /usr/lib/x86_64-linux-gnu/libXfixes.so.3.1.0
7f6597cee000-7f6597cf7000 r-xp 00000000 08:01 10232223                   /usr/lib/x86_64-linux-gnu/libXcursor.so.1.0.2
7f6597cf7000-7f6597ef6000 ---p 00009000 08:01 10232223                   /usr/lib/x86_64-linux-gnu/libXcursor.so.1.0.2
7f6597ef6000-7f6597ef7000 r--p 00008000 08:01 10232223                   /usr/lib/x86_64-linux-gnu/libXcursor.so.1.0.2
7f6597ef7000-7f6597ef8000 rw-p 00009000 08:01 10232223                   /usr/lib/x86_64-linux-gnu/libXcursor.so.1.0.2
7f6597eff000-7f6597f02000 ---p 00000000 00:00 0 
7f6597f02000-7f6598000000 rw-p 00000000 00:00 0 
7f6598000000-7f6598021000 rw-p 00000000 00:00 0 
7f6598021000-7f659c000000 ---p 00000000 00:00 0 
7f659c000000-7f659c021000 rw-p 00000000 00:00 0 
7f659c021000-7f65a0000000 ---p 00000000 00:00 0 
7f65a0000000-7f65a00d3000 rw-p 00000000 00:00 0 
7f65a00d3000-7f65a4000000 ---p 00000000 00:00 0 
7f65a4000000-7f65a4161000 rw-p 00000000 00:00 0 
7f65a4161000-7f65a8000000 ---p 00000000 00:00 0 
7f65a8000000-7f65a8021000 rw-p 00000000 00:00 0 
7f65a8021000-7f65ac000000 ---p 00000000 00:00 0 
7f65ac000000-7f65ac0bd000 rw-p 00000000 00:00 0 
7f65ac0bd000-7f65b0000000 ---p 00000000 00:00 0 
7f65b0000000-7f65b0021000 rw-p 00000000 00:00 0 
7f65b0021000-7f65b4000000 ---p 00000000 00:00 0 
7f65b4000000-7f65b4021000 rw-p 00000000 00:00 0 
7f65b4021000-7f65b8000000 ---p 00000000 00:00 0 
7f65b8000000-7f65b8021000 rw-p 00000000 00:00 0 
7f65b8021000-7f65bc000000 ---p 00000000 00:00 0 
7f65bc086000-7f65bc0aa000 r-xp 00000000 08:01 5378694                    /lib/x86_64-linux-gnu/libpng12.so.0.54.0
7f65bc0aa000-7f65bc2a9000 ---p 00024000 08:01 5378694                    /lib/x86_64-linux-gnu/libpng12.so.0.54.0
7f65bc2a9000-7f65bc2aa000 r--p 00023000 08:01 5378694                    /lib/x86_64-linux-gnu/libpng12.so.0.54.0
7f65bc2aa000-7f65bc2ab000 rw-p 00024000 08:01 5378694                    /lib/x86_64-linux-gnu/libpng12.so.0.54.0
7f65bc2ae000-7f65bc352000 r-xp 00000000 08:01 10232656                   /usr/lib/x86_64-linux-gnu/libfreetype.so.6.12.1
7f65bc352000-7f65bc551000 ---p 000a4000 08:01 10232656                   /usr/lib/x86_64-linux-gnu/libfreetype.so.6.12.1
7f65bc551000-7f65bc557000 r--p 000a3000 08:01 10232656                   /usr/lib/x86_64-linux-gnu/libfreetype.so.6.12.1
7f65bc557000-7f65bc558000 rw-p 000a9000 08:01 10232656                   /usr/lib/x86_64-linux-gnu/libfreetype.so.6.12.1
7f65bc58e000-7f65bc5e0000 r-xp 00000000 08:01 10355580                   /usr/lib/jvm/java-8-openjdk-amd64/jre/lib/amd64/libfontmanager.so
7f65bc5e0000-7f65bc7e0000 ---p 00052000 08:01 10355580                   /usr/lib/jvm/java-8-openjdk-amd64/jre/lib/amd64/libfontmanager.so
7f65bc7e0000-7f65bc7e2000 r--p 00052000 08:01 10355580                   /usr/lib/jvm/java-8-openjdk-amd64/jre/lib/amd64/libfontmanager.so
7f65bc7e2000-7f65bc7e3000 rw-p 00054000 08:01 10355580                   /usr/lib/jvm/java-8-openjdk-amd64/jre/lib/amd64/libfontmanager.so
7f65bc7e6000-7f65bc7f7000 r-xp 00000000 08:01 10355624                   /usr/lib/jvm/java-8-openjdk-amd64/jre/lib/amd64/libnio.so
7f65bc7f7000-7f65bc9f7000 ---p 00011000 08:01 10355624                   /usr/lib/jvm/java-8-openjdk-amd64/jre/lib/amd64/libnio.so
7f65bc9f7000-7f65bc9f8000 r--p 00011000 08:01 10355624                   /usr/lib/jvm/java-8-openjdk-amd64/jre/lib/amd64/libnio.so
7f65bc9f8000-7f65bc9f9000 rw-p 00012000 08:01 10355624                   /usr/lib/jvm/java-8-openjdk-amd64/jre/lib/amd64/libnio.so
7f65bc9fd000-7f65bccfe000 rw-p 00000000 00:00 0 
7f65bccfe000-7f65bcd15000 r-xp 00000000 08:01 10355583                   /usr/lib/jvm/java-8-openjdk-amd64/jre/lib/amd64/libnet.so
7f65bcd15000-7f65bcf14000 ---p 00017000 08:01 10355583                   /usr/lib/jvm/java-8-openjdk-amd64/jre/lib/amd64/libnet.so
7f65bcf14000-7f65bcf15000 r--p 00016000 08:01 10355583                   /usr/lib/jvm/java-8-openjdk-amd64/jre/lib/amd64/libnet.so
7f65bcf15000-7f65bcf16000 rw-p 00017000 08:01 10355583                   /usr/lib/jvm/java-8-openjdk-amd64/jre/lib/amd64/libnet.so
7f65bcf1d000-7f65bcf20000 ---p 00000000 00:00 0 
7f65bcf20000-7f65bd01e000 rw-p 00000000 00:00 0 
7f65bd01e000-7f65bd023000 r-xp 00000000 08:01 10232227                   /usr/lib/x86_64-linux-gnu/libXdmcp.so.6.0.0
7f65bd023000-7f65bd222000 ---p 00005000 08:01 10232227                   /usr/lib/x86_64-linux-gnu/libXdmcp.so.6.0.0
7f65bd222000-7f65bd223000 r--p 00004000 08:01 10232227                   /usr/lib/x86_64-linux-gnu/libXdmcp.so.6.0.0
7f65bd223000-7f65bd224000 rw-p 00005000 08:01 10232227                   /usr/lib/x86_64-linux-gnu/libXdmcp.so.6.0.0
7f65bd226000-7f65bd228000 r-xp 00000000 08:01 10232216                   /usr/lib/x86_64-linux-gnu/libXau.so.6.0.0
7f65bd228000-7f65bd428000 ---p 00002000 08:01 10232216                   /usr/lib/x86_64-linux-gnu/libXau.so.6.0.0
7f65bd428000-7f65bd429000 r--p 00002000 08:01 10232216                   /usr/lib/x86_64-linux-gnu/libXau.so.6.0.0
7f65bd429000-7f65bd42a000 rw-p 00003000 08:01 10232216                   /usr/lib/x86_64-linux-gnu/libXau.so.6.0.0
7f65bd42e000-7f65bd44f000 r-xp 00000000 08:01 10233636                   /usr/lib/x86_64-linux-gnu/libxcb.so.1.1.0
7f65bd44f000-7f65bd64e000 ---p 00021000 08:01 10233636                   /usr/lib/x86_64-linux-gnu/libxcb.so.1.1.0
7f65bd64e000-7f65bd64f000 r--p 00020000 08:01 10233636                   /usr/lib/x86_64-linux-gnu/libxcb.so.1.1.0
7f65bd64f000-7f65bd650000 rw-p 00021000 08:01 10233636                   /usr/lib/x86_64-linux-gnu/libxcb.so.1.1.0
7f65bd656000-7f65bd665000 r-xp 00000000 08:01 10232237                   /usr/lib/x86_64-linux-gnu/libXi.so.6.1.0
7f65bd665000-7f65bd864000 ---p 0000f000 08:01 10232237                   /usr/lib/x86_64-linux-gnu/libXi.so.6.1.0
7f65bd864000-7f65bd865000 r--p 0000e000 08:01 10232237                   /usr/lib/x86_64-linux-gnu/libXi.so.6.1.0
7f65bd865000-7f65bd866000 rw-p 0000f000 08:01 10232237                   /usr/lib/x86_64-linux-gnu/libXi.so.6.1.0
7f65bd866000-7f65bd86b000 r-xp 00000000 08:01 10232255                   /usr/lib/x86_64-linux-gnu/libXtst.so.6.1.0
7f65bd86b000-7f65bda6a000 ---p 00005000 08:01 10232255                   /usr/lib/x86_64-linux-gnu/libXtst.so.6.1.0
7f65bda6a000-7f65bda6b000 r--p 00004000 08:01 10232255                   /usr/lib/x86_64-linux-gnu/libXtst.so.6.1.0
7f65bda6b000-7f65bda6c000 rw-p 00005000 08:01 10232255                   /usr/lib/x86_64-linux-gnu/libXtst.so.6.1.0
7f65bda6e000-7f65bda77000 r-xp 00000000 08:01 10232249                   /usr/lib/x86_64-linux-gnu/libXrender.so.1.3.0
7f65bda77000-7f65bdc76000 ---p 00009000 08:01 10232249                   /usr/lib/x86_64-linux-gnu/libXrender.so.1.3.0
7f65bdc76000-7f65bdc77000 r--p 00008000 08:01 10232249                   /usr/lib/x86_64-linux-gnu/libXrender.so.1.3.0
7f65bdc77000-7f65bdc78000 rw-p 00009000 08:01 10232249                   /usr/lib/x86_64-linux-gnu/libXrender.so.1.3.0
7f65bdc7e000-7f65bddb3000 r-xp 00000000 08:01 10232212                   /usr/lib/x86_64-linux-gnu/libX11.so.6.3.0
7f65bddb3000-7f65bdfb3000 ---p 00135000 08:01 10232212                   /usr/lib/x86_64-linux-gnu/libX11.so.6.3.0
7f65bdfb3000-7f65bdfb4000 r--p 00135000 08:01 10232212                   /usr/lib/x86_64-linux-gnu/libX11.so.6.3.0
7f65bdfb4000-7f65bdfb8000 rw-p 00136000 08:01 10232212                   /usr/lib/x86_64-linux-gnu/libX11.so.6.3.0
7f65bdfbe000-7f65bdfcf000 r-xp 00000000 08:01 10232229                   /usr/lib/x86_64-linux-gnu/libXext.so.6.4.0
7f65bdfcf000-7f65be1ce000 ---p 00011000 08:01 10232229                   /usr/lib/x86_64-linux-gnu/libXext.so.6.4.0
7f65be1ce000-7f65be1cf000 r--p 00010000 08:01 10232229                   /usr/lib/x86_64-linux-gnu/libXext.so.6.4.0
7f65be1cf000-7f65be1d0000 rw-p 00011000 08:01 10232229                   /usr/lib/x86_64-linux-gnu/libXext.so.6.4.0
7f65be1f3000-7f65be206000 r--s 00345000 08:01 10355628                   /usr/lib/jvm/java-8-openjdk-amd64/jre/lib/resources.jar
7f65be206000-7f65be25a000 r-xp 00000000 08:01 10355623                   /usr/lib/jvm/java-8-openjdk-amd64/jre/lib/amd64/libawt_xawt.so
7f65be25a000-7f65be45a000 ---p 00054000 08:01 10355623                   /usr/lib/jvm/java-8-openjdk-amd64/jre/lib/amd64/libawt_xawt.so
7f65be45a000-7f65be45b000 r--p 00054000 08:01 10355623                   /usr/lib/jvm/java-8-openjdk-amd64/jre/lib/amd64/libawt_xawt.so
7f65be45b000-7f65be45e000 rw-p 00055000 08:01 10355623                   /usr/lib/jvm/java-8-openjdk-amd64/jre/lib/amd64/libawt_xawt.so
7f65be45e000-7f65be45f000 rw-p 00000000 00:00 0 
7f65be466000-7f65be506000 r-xp 00000000 08:01 10355579                   /usr/lib/jvm/java-8-openjdk-amd64/jre/lib/amd64/libawt.so
7f65be506000-7f65be706000 ---p 000a0000 08:01 10355579                   /usr/lib/jvm/java-8-openjdk-amd64/jre/lib/amd64/libawt.so
7f65be706000-7f65be707000 r--p 000a0000 08:01 10355579                   /usr/lib/jvm/java-8-openjdk-amd64/jre/lib/amd64/libawt.so
7f65be707000-7f65be712000 rw-p 000a1000 08:01 10355579                   /usr/lib/jvm/java-8-openjdk-amd64/jre/lib/amd64/libawt.so
7f65be712000-7f65be737000 rw-p 00000000 00:00 0 
7f65be73c000-7f65be73e000 r--s 0002e000 08:12 7864956                    /media/josiah/Storage/Dropbox/easymacros/jnativehook-2.0.3.jar
7f65be740000-7f65be741000 r--s 0000a000 08:01 10355679                   /usr/lib/jvm/java-8-openjdk-amd64/jre/lib/ext/jaccess.jar
7f65be741000-7f65be75d000 r--s 00393000 08:01 10355673                   /usr/lib/jvm/java-8-openjdk-amd64/jre/lib/ext/cldrdata.jar
7f65be75d000-7f65be778000 r--s 001d7000 08:01 10355669                   /usr/lib/jvm/java-8-openjdk-amd64/jre/lib/ext/nashorn.jar
7f65be77e000-7f65be77f000 r--s 00008000 08:01 10355677                   /usr/lib/jvm/java-8-openjdk-amd64/jre/lib/ext/sunec.jar
7f65be786000-7f65be787000 r--s 00010000 08:01 10355680                   /usr/lib/jvm/java-8-openjdk-amd64/jre/lib/ext/zipfs.jar
7f65be787000-7f65be789000 r--s 00001000 08:01 10355671                   /usr/lib/jvm/java-8-openjdk-amd64/jre/lib/ext/dnsns.jar
7f65be789000-7f65be78e000 r--s 0003b000 08:01 10355681                   /usr/lib/jvm/java-8-openjdk-amd64/jre/lib/ext/sunjce_provider.jar
7f65be795000-7f65be799000 r--s 00037000 08:01 10355684                   /usr/lib/jvm/java-8-openjdk-amd64/jre/lib/ext/sunpkcs11.jar
7f65be79c000-7f65be7a6000 r--s 00116000 08:01 10355683                   /usr/lib/jvm/java-8-openjdk-amd64/jre/lib/ext/localedata.jar
7f65be7a8000-7f65be7a9000 ---p 00000000 00:00 0 
7f65be7a9000-7f65be8a9000 rw-p 00000000 00:00 0 
7f65be8a9000-7f65be8ac000 ---p 00000000 00:00 0 
7f65be8ac000-7f65be9aa000 rw-p 00000000 00:00 0 
7f65be9aa000-7f65be9ad000 ---p 00000000 00:00 0 
7f65be9ad000-7f65beaab000 rw-p 00000000 00:00 0 
7f65beaab000-7f65beaae000 ---p 00000000 00:00 0 
7f65beaae000-7f65bebac000 rw-p 00000000 00:00 0 
7f65bebac000-7f65bebaf000 ---p 00000000 00:00 0 
7f65bebaf000-7f65becad000 rw-p 00000000 00:00 0 
7f65becad000-7f65becb0000 ---p 00000000 00:00 0 
7f65becb0000-7f65bedae000 rw-p 00000000 00:00 0 
7f65bedae000-7f65bf086000 r--p 00000000 08:01 10230914                   /usr/lib/locale/locale-archive
7f65bf08c000-7f65bf08f000 ---p 00000000 00:00 0 
7f65bf08f000-7f65bf18d000 rw-p 00000000 00:00 0 
7f65bf18d000-7f65bf190000 ---p 00000000 00:00 0 
7f65bf190000-7f65bf28e000 rw-p 00000000 00:00 0 
7f65bf28e000-7f65bf28f000 ---p 00000000 00:00 0 
7f65bf28f000-7f65c4000000 rw-p 00000000 00:00 0 
7f65c4000000-7f65c4021000 rw-p 00000000 00:00 0 
7f65c4021000-7f65c8000000 ---p 00000000 00:00 0 
7f65c8000000-7f65c8021000 rw-p 00000000 00:00 0 
7f65c8021000-7f65cc000000 ---p 00000000 00:00 0 
7f65cc000000-7f65cc021000 rw-p 00000000 00:00 0 
7f65cc021000-7f65d0000000 ---p 00000000 00:00 0 
7f65d0000000-7f65d0021000 rw-p 00000000 00:00 0 
7f65d0021000-7f65d4000000 ---p 00000000 00:00 0 
7f65d4000000-7f65d4021000 rw-p 00000000 00:00 0 
7f65d4021000-7f65d8000000 ---p 00000000 00:00 0 
7f65d8000000-7f65d8021000 rw-p 00000000 00:00 0 
7f65d8021000-7f65dc000000 ---p 00000000 00:00 0 
7f65dc005000-7f65dc008000 r--s 0000f000 08:01 10355682                   /usr/lib/jvm/java-8-openjdk-amd64/jre/lib/ext/icedtea-sound.jar
7f65dc00a000-7f65dc631000 rw-p 00000000 00:00 0 
7f65dc631000-7f65dc7ff000 r--s 03beb000 08:01 10355648                   /usr/lib/jvm/java-8-openjdk-amd64/jre/lib/rt.jar
7f65dc800000-7f65dd000000 rw-p 00000000 00:00 0 
7f65dd000000-7f65dd270000 rwxp 00000000 00:00 0 
7f65dd270000-7f65ec000000 ---p 00000000 00:00 0 
7f65ec000000-7f65ec2a4000 rw-p 00000000 00:00 0 
7f65ec2a4000-7f65f0000000 ---p 00000000 00:00 0 
7f65f0004000-7f65f05c9000 rw-p 00000000 00:00 0 
7f65f05c9000-7f65f05ca000 ---p 00000000 00:00 0 
7f65f05ca000-7f65f06ca000 rw-p 00000000 00:00 0 
7f65f06ca000-7f65f06cb000 ---p 00000000 00:00 0 
7f65f06cb000-7f65f07cb000 rw-p 00000000 00:00 0 
7f65f07cb000-7f65f07cc000 ---p 00000000 00:00 0 
7f65f07cc000-7f65f08cc000 rw-p 00000000 00:00 0 
7f65f08cc000-7f65f08cd000 ---p 00000000 00:00 0 
7f65f08cd000-7f65f09cd000 rw-p 00000000 00:00 0 
7f65f09cd000-7f65f09ce000 ---p 00000000 00:00 0 
7f65f09ce000-7f65f0ace000 rw-p 00000000 00:00 0 
7f65f0ace000-7f65f0acf000 ---p 00000000 00:00 0 
7f65f0acf000-7f65f0bf9000 rw-p 00000000 00:00 0 
7f65f0bf9000-7f65f0e65000 ---p 00000000 00:00 0 
7f65f0e65000-7f65f0e8f000 rw-p 00000000 00:00 0 
7f65f0e8f000-7f65f10fa000 ---p 00000000 00:00 0 
7f65f10fa000-7f65f110f000 rw-p 00000000 00:00 0 
7f65f110f000-7f65f1245000 ---p 00000000 00:00 0 
7f65f1245000-7f65f1250000 rw-p 00000000 00:00 0 
7f65f1250000-7f65f1606000 ---p 00000000 00:00 0 
7f65f1606000-7f65f160e000 r-xp 00000000 08:01 10355592                   /usr/lib/jvm/java-8-openjdk-amd64/jre/lib/amd64/libzip.so
7f65f160e000-7f65f180d000 ---p 00008000 08:01 10355592                   /usr/lib/jvm/java-8-openjdk-amd64/jre/lib/amd64/libzip.so
7f65f180d000-7f65f180e000 r--p 00007000 08:01 10355592                   /usr/lib/jvm/java-8-openjdk-amd64/jre/lib/amd64/libzip.so
7f65f180e000-7f65f180f000 rw-p 00008000 08:01 10355592                   /usr/lib/jvm/java-8-openjdk-amd64/jre/lib/amd64/libzip.so
7f65f1816000-7f65f1821000 r-xp 00000000 08:01 5378652                    /lib/x86_64-linux-gnu/libnss_files-2.23.so
7f65f1821000-7f65f1a20000 ---p 0000b000 08:01 5378652                    /lib/x86_64-linux-gnu/libnss_files-2.23.so
7f65f1a20000-7f65f1a21000 r--p 0000a000 08:01 5378652                    /lib/x86_64-linux-gnu/libnss_files-2.23.so
7f65f1a21000-7f65f1a22000 rw-p 0000b000 08:01 5378652                    /lib/x86_64-linux-gnu/libnss_files-2.23.so
7f65f1a22000-7f65f1a28000 rw-p 00000000 00:00 0 
7f65f1a2e000-7f65f1a39000 r-xp 00000000 08:01 5378662                    /lib/x86_64-linux-gnu/libnss_nis-2.23.so
7f65f1a39000-7f65f1c38000 ---p 0000b000 08:01 5378662                    /lib/x86_64-linux-gnu/libnss_nis-2.23.so
7f65f1c38000-7f65f1c39000 r--p 0000a000 08:01 5378662                    /lib/x86_64-linux-gnu/libnss_nis-2.23.so
7f65f1c39000-7f65f1c3a000 rw-p 0000b000 08:01 5378662                    /lib/x86_64-linux-gnu/libnss_nis-2.23.so
7f65f1c3e000-7f65f1c54000 r-xp 00000000 08:01 5378646                    /lib/x86_64-linux-gnu/libnsl-2.23.so
7f65f1c54000-7f65f1e53000 ---p 00016000 08:01 5378646                    /lib/x86_64-linux-gnu/libnsl-2.23.so
7f65f1e53000-7f65f1e54000 r--p 00015000 08:01 5378646                    /lib/x86_64-linux-gnu/libnsl-2.23.so
7f65f1e54000-7f65f1e55000 rw-p 00016000 08:01 5378646                    /lib/x86_64-linux-gnu/libnsl-2.23.so
7f65f1e55000-7f65f1e57000 rw-p 00000000 00:00 0 
7f65f1e5e000-7f65f1e66000 r-xp 00000000 08:01 5378648                    /lib/x86_64-linux-gnu/libnss_compat-2.23.so
7f65f1e66000-7f65f2065000 ---p 00008000 08:01 5378648                    /lib/x86_64-linux-gnu/libnss_compat-2.23.so
7f65f2065000-7f65f2066000 r--p 00007000 08:01 5378648                    /lib/x86_64-linux-gnu/libnss_compat-2.23.so
7f65f2066000-7f65f2067000 rw-p 00008000 08:01 5378648                    /lib/x86_64-linux-gnu/libnss_compat-2.23.so
7f65f206e000-7f65f209b000 r-xp 00000000 08:01 10355573                   /usr/lib/jvm/java-8-openjdk-amd64/jre/lib/amd64/libjava.so
7f65f209b000-7f65f229a000 ---p 0002d000 08:01 10355573                   /usr/lib/jvm/java-8-openjdk-amd64/jre/lib/amd64/libjava.so
7f65f229a000-7f65f229b000 r--p 0002c000 08:01 10355573                   /usr/lib/jvm/java-8-openjdk-amd64/jre/lib/amd64/libjava.so
7f65f229b000-7f65f229d000 rw-p 0002d000 08:01 10355573                   /usr/lib/jvm/java-8-openjdk-amd64/jre/lib/amd64/libjava.so
7f65f229e000-7f65f22ad000 r-xp 00000000 08:01 10355575                   /usr/lib/jvm/java-8-openjdk-amd64/jre/lib/amd64/libverify.so
7f65f22ad000-7f65f24ac000 ---p 0000f000 08:01 10355575                   /usr/lib/jvm/java-8-openjdk-amd64/jre/lib/amd64/libverify.so
7f65f24ac000-7f65f24ae000 r--p 0000e000 08:01 10355575                   /usr/lib/jvm/java-8-openjdk-amd64/jre/lib/amd64/libverify.so
7f65f24ae000-7f65f24af000 rw-p 00010000 08:01 10355575                   /usr/lib/jvm/java-8-openjdk-amd64/jre/lib/amd64/libverify.so
7f65f24b6000-7f65f24bd000 r-xp 00000000 08:01 5378707                    /lib/x86_64-linux-gnu/librt-2.23.so
7f65f24bd000-7f65f26bc000 ---p 00007000 08:01 5378707                    /lib/x86_64-linux-gnu/librt-2.23.so
7f65f26bc000-7f65f26bd000 r--p 00006000 08:01 5378707                    /lib/x86_64-linux-gnu/librt-2.23.so
7f65f26bd000-7f65f26be000 rw-p 00007000 08:01 5378707                    /lib/x86_64-linux-gnu/librt-2.23.so
7f65f26be000-7f65f26d4000 r-xp 00000000 08:01 5378591                    /lib/x86_64-linux-gnu/libgcc_s.so.1
7f65f26d4000-7f65f28d3000 ---p 00016000 08:01 5378591                    /lib/x86_64-linux-gnu/libgcc_s.so.1
7f65f28d3000-7f65f28d4000 rw-p 00015000 08:01 5378591                    /lib/x86_64-linux-gnu/libgcc_s.so.1
7f65f28d6000-7f65f29de000 r-xp 00000000 08:01 5378623                    /lib/x86_64-linux-gnu/libm-2.23.so
7f65f29de000-7f65f2bdd000 ---p 00108000 08:01 5378623                    /lib/x86_64-linux-gnu/libm-2.23.so
7f65f2bdd000-7f65f2bde000 r--p 00107000 08:01 5378623                    /lib/x86_64-linux-gnu/libm-2.23.so
7f65f2bde000-7f65f2bdf000 rw-p 00108000 08:01 5378623                    /lib/x86_64-linux-gnu/libm-2.23.so
7f65f2be6000-7f65f2d58000 r-xp 00000000 08:01 10228848                   /usr/lib/x86_64-linux-gnu/libstdc++.so.6.0.21
7f65f2d58000-7f65f2f58000 ---p 00172000 08:01 10228848                   /usr/lib/x86_64-linux-gnu/libstdc++.so.6.0.21
7f65f2f58000-7f65f2f62000 r--p 00172000 08:01 10228848                   /usr/lib/x86_64-linux-gnu/libstdc++.so.6.0.21
7f65f2f62000-7f65f2f64000 rw-p 0017c000 08:01 10228848                   /usr/lib/x86_64-linux-gnu/libstdc++.so.6.0.21
7f65f2f64000-7f65f2f68000 rw-p 00000000 00:00 0 
7f65f2f6e000-7f65f3bb4000 r-xp 00000000 08:01 10355590                   /usr/lib/jvm/java-8-openjdk-amd64/jre/lib/amd64/server/libjvm.so
7f65f3bb4000-7f65f3db4000 ---p 00c46000 08:01 10355590                   /usr/lib/jvm/java-8-openjdk-amd64/jre/lib/amd64/server/libjvm.so
7f65f3db4000-7f65f3e47000 r--p 00c46000 08:01 10355590                   /usr/lib/jvm/java-8-openjdk-amd64/jre/lib/amd64/server/libjvm.so
7f65f3e47000-7f65f3e6f000 rw-p 00cd9000 08:01 10355590                   /usr/lib/jvm/java-8-openjdk-amd64/jre/lib/amd64/server/libjvm.so
7f65f3e6f000-7f65f3e9f000 rw-p 00000000 00:00 0 
7f65f3ea6000-7f65f3ebe000 r-xp 00000000 08:01 5378699                    /lib/x86_64-linux-gnu/libpthread-2.23.so
7f65f3ebe000-7f65f40bd000 ---p 00018000 08:01 5378699                    /lib/x86_64-linux-gnu/libpthread-2.23.so
7f65f40bd000-7f65f40be000 r--p 00017000 08:01 5378699                    /lib/x86_64-linux-gnu/libpthread-2.23.so
7f65f40be000-7f65f40bf000 rw-p 00018000 08:01 5378699                    /lib/x86_64-linux-gnu/libpthread-2.23.so
7f65f40bf000-7f65f40c3000 rw-p 00000000 00:00 0 
7f65f40c6000-7f65f40c9000 r-xp 00000000 08:01 5378577                    /lib/x86_64-linux-gnu/libdl-2.23.so
7f65f40c9000-7f65f42c8000 ---p 00003000 08:01 5378577                    /lib/x86_64-linux-gnu/libdl-2.23.so
7f65f42c8000-7f65f42c9000 r--p 00002000 08:01 5378577                    /lib/x86_64-linux-gnu/libdl-2.23.so
7f65f42c9000-7f65f42ca000 rw-p 00003000 08:01 5378577                    /lib/x86_64-linux-gnu/libdl-2.23.so
7f65f42ce000-7f65f42e7000 r-xp 00000000 08:01 5378744                    /lib/x86_64-linux-gnu/libz.so.1.2.8
7f65f42e7000-7f65f44e6000 ---p 00019000 08:01 5378744                    /lib/x86_64-linux-gnu/libz.so.1.2.8
7f65f44e6000-7f65f44e7000 r--p 00018000 08:01 5378744                    /lib/x86_64-linux-gnu/libz.so.1.2.8
7f65f44e7000-7f65f44e8000 rw-p 00019000 08:01 5378744                    /lib/x86_64-linux-gnu/libz.so.1.2.8
7f65f44ee000-7f65f46ae000 r-xp 00000000 08:01 5378553                    /lib/x86_64-linux-gnu/libc-2.23.so
7f65f46ae000-7f65f48ad000 ---p 001c0000 08:01 5378553                    /lib/x86_64-linux-gnu/libc-2.23.so
7f65f48ad000-7f65f48b1000 r--p 001bf000 08:01 5378553                    /lib/x86_64-linux-gnu/libc-2.23.so
7f65f48b1000-7f65f48b3000 rw-p 001c3000 08:01 5378553                    /lib/x86_64-linux-gnu/libc-2.23.so
7f65f48b3000-7f65f48b7000 rw-p 00000000 00:00 0 
7f65f48be000-7f65f48cb000 r-xp 00000000 08:01 10355620                   /usr/lib/jvm/java-8-openjdk-amd64/jre/lib/amd64/jli/libjli.so
7f65f48cb000-7f65f4acb000 ---p 0000d000 08:01 10355620                   /usr/lib/jvm/java-8-openjdk-amd64/jre/lib/amd64/jli/libjli.so
7f65f4acb000-7f65f4acc000 r--p 0000d000 08:01 10355620                   /usr/lib/jvm/java-8-openjdk-amd64/jre/lib/amd64/jli/libjli.so
7f65f4acc000-7f65f4acd000 rw-p 0000e000 08:01 10355620                   /usr/lib/jvm/java-8-openjdk-amd64/jre/lib/amd64/jli/libjli.so
7f65f4ace000-7f65f4af4000 r-xp 00000000 08:01 5378525                    /lib/x86_64-linux-gnu/ld-2.23.so
7f65f4afa000-7f65f4be6000 rw-p 00000000 00:00 0 
7f65f4be6000-7f65f4bee000 rw-s 00000000 08:01 3146435                    /tmp/hsperfdata_josiah/25905
7f65f4bef000-7f65f4bf0000 rw-p 00000000 00:00 0 
7f65f4bf0000-7f65f4bf1000 r--p 00000000 00:00 0 
7f65f4bf1000-7f65f4bf4000 ---p 00000000 00:00 0 
7f65f4bf4000-7f65f4cf3000 rw-p 00000000 00:00 0 
7f65f4cf3000-7f65f4cf4000 r--p 00025000 08:01 5378525                    /lib/x86_64-linux-gnu/ld-2.23.so
7f65f4cf4000-7f65f4cf5000 rw-p 00026000 08:01 5378525                    /lib/x86_64-linux-gnu/ld-2.23.so
7f65f4cf5000-7f65f4cf7000 rw-p 00000000 00:00 0 
7f65f4cf7000-7f65f4cfc000 rw-p 00000000 00:00 0 
7fffa94e5000-7fffa9506000 rw-p 00000000 00:00 0                          [stack]
7fffa9526000-7fffa9528000 r--p 00000000 00:00 0                          [vvar]
7fffa9528000-7fffa952a000 r-xp 00000000 00:00 0                          [vdso]
ffffffffff600000-ffffffffff601000 r-xp 00000000 00:00 0                  [vsyscall]

VM Arguments:
jvm_args: -Dfile.encoding=UTF-8 
java_command: easymacros.EasyMacros -r
java_class_path (initial): /media/josiah/Storage/Dropbox/easymacros/jnativehook-2.0.3.jar:/media/josiah/Storage/Dropbox/easymacros/easymacros/build/classes
Launcher Type: SUN_STANDARD

Environment Variables:
PATH=/usr/local/sbin:/usr/local/bin:/usr/sbin:/usr/bin:/sbin:/bin:/usr/games:/usr/local/games
USERNAME=josiah
LD_LIBRARY_PATH=/usr/lib/jvm/java-8-openjdk-amd64/bin/../jre/lib/amd64:/usr/lib/jvm/java-8-openjdk-amd64/bin/../jre/lib/i386:
SHELL=/bin/bash
DISPLAY=:0

Signal Handlers:
SIGSEGV: [libjvm.so+0xa5e970], sa_mask[0]=11111111011111111101111111111110, sa_flags=SA_RESTART|SA_SIGINFO
SIGBUS: [libjvm.so+0xa5e970], sa_mask[0]=11111111011111111101111111111110, sa_flags=SA_RESTART|SA_SIGINFO
SIGFPE: [libjvm.so+0x8a9ff0], sa_mask[0]=11111111011111111101111111111110, sa_flags=SA_RESTART|SA_SIGINFO
SIGPIPE: [libjvm.so+0x8a9ff0], sa_mask[0]=11111111011111111101111111111110, sa_flags=SA_RESTART|SA_SIGINFO
SIGXFSZ: [libjvm.so+0x8a9ff0], sa_mask[0]=11111111011111111101111111111110, sa_flags=SA_RESTART|SA_SIGINFO
SIGILL: [libjvm.so+0x8a9ff0], sa_mask[0]=11111111011111111101111111111110, sa_flags=SA_RESTART|SA_SIGINFO
SIGUSR1: SIG_DFL, sa_mask[0]=00000000000000000000000000000000, sa_flags=none
SIGUSR2: [libjvm.so+0x8a9ea0], sa_mask[0]=00100000000000000000000000000000, sa_flags=SA_RESTART|SA_SIGINFO
SIGHUP: [libjvm.so+0x8aa370], sa_mask[0]=11111111011111111101111111111110, sa_flags=SA_RESTART|SA_SIGINFO
SIGINT: SIG_IGN, sa_mask[0]=00000000000000000000000000000000, sa_flags=none
SIGTERM: [libjvm.so+0x8aa370], sa_mask[0]=11111111011111111101111111111110, sa_flags=SA_RESTART|SA_SIGINFO
SIGQUIT: [libjvm.so+0x8aa370], sa_mask[0]=11111111011111111101111111111110, sa_flags=SA_RESTART|SA_SIGINFO


---------------  S Y S T E M  ---------------

OS:DISTRIB_ID=LinuxMint
DISTRIB_RELEASE=18
DISTRIB_CODENAME=sarah
DISTRIB_DESCRIPTION="Linux Mint 18 Sarah"

uname:Linux 4.4.0-21-generic #37-Ubuntu SMP Mon Apr 18 18:33:37 UTC 2016 x86_64
libc:glibc 2.23 NPTL 2.23 
rlimit: STACK 8192k, CORE 0k, NPROC 31305, NOFILE 65536, AS infinity
load average:0.48 0.60 0.74

/proc/meminfo:
MemTotal:        8120724 kB
MemFree:          906512 kB
MemAvailable:    4014880 kB
Buffers:           87156 kB
Cached:          3109916 kB
SwapCached:         1128 kB
Active:          5091808 kB
Inactive:        1690424 kB
Active(anon):    2975456 kB
Inactive(anon):   778652 kB
Active(file):    2116352 kB
Inactive(file):   911772 kB
Unevictable:         124 kB
Mlocked:             124 kB
SwapTotal:       7999484 kB
SwapFree:        7905808 kB
Dirty:               384 kB
Writeback:             0 kB
AnonPages:       3584588 kB
Mapped:           524480 kB
Shmem:            168948 kB
Slab:             173728 kB
SReclaimable:     122688 kB
SUnreclaim:        51040 kB
KernelStack:       13152 kB
PageTables:        58444 kB
NFS_Unstable:          0 kB
Bounce:                0 kB
WritebackTmp:          0 kB
CommitLimit:    12059844 kB
Committed_AS:    9233372 kB
VmallocTotal:   34359738367 kB
VmallocUsed:           0 kB
VmallocChunk:          0 kB
HardwareCorrupted:     0 kB
AnonHugePages:   1781760 kB
CmaTotal:              0 kB
CmaFree:               0 kB
HugePages_Total:       0
HugePages_Free:        0
HugePages_Rsvd:        0
HugePages_Surp:        0
Hugepagesize:       2048 kB
DirectMap4k:      707404 kB
DirectMap2M:     7626752 kB
DirectMap1G:           0 kB


CPU:total 6 (6 cores per cpu, 1 threads per core) family 21 model 1 stepping 2, cmov, cx8, fxsr, mmx, sse, sse2, sse3, ssse3, sse4.1, sse4.2, popcnt, avx, aes, clmul, mmxext, 3dnowpref, lzcnt, sse4a, tsc, tscinvbit, tscinv

/proc/cpuinfo:
processor	: 0
vendor_id	: AuthenticAMD
cpu family	: 21
model		: 1
model name	: AMD FX(tm)-6100 Six-Core Processor
stepping	: 2
microcode	: 0x6000626
cpu MHz		: 2400.000
cache size	: 2048 KB
physical id	: 0
siblings	: 6
core id		: 0
cpu cores	: 3
apicid		: 16
initial apicid	: 0
fpu		: yes
fpu_exception	: yes
cpuid level	: 13
wp		: yes
flags		: fpu vme de pse tsc msr pae mce cx8 apic sep mtrr pge mca cmov pat pse36 clflush mmx fxsr sse sse2 ht syscall nx mmxext fxsr_opt pdpe1gb rdtscp lm constant_tsc rep_good nopl nonstop_tsc extd_apicid aperfmperf pni pclmulqdq monitor ssse3 cx16 sse4_1 sse4_2 popcnt aes xsave avx lahf_lm cmp_legacy svm extapic cr8_legacy abm sse4a misalignsse 3dnowprefetch osvw ibs xop skinit wdt lwp fma4 nodeid_msr topoext perfctr_core perfctr_nb cpb hw_pstate vmmcall arat npt lbrv svm_lock nrip_save tsc_scale vmcb_clean flushbyasid decodeassists pausefilter pfthreshold
bugs		: fxsave_leak sysret_ss_attrs
bogomips	: 6622.70
TLB size	: 1536 4K pages
clflush size	: 64
cache_alignment	: 64
address sizes	: 48 bits physical, 48 bits virtual
power management: ts ttp tm 100mhzsteps hwpstate cpb

processor	: 1
vendor_id	: AuthenticAMD
cpu family	: 21
model		: 1
model name	: AMD FX(tm)-6100 Six-Core Processor
stepping	: 2
microcode	: 0x6000626
cpu MHz		: 1800.000
cache size	: 2048 KB
physical id	: 0
siblings	: 6
core id		: 1
cpu cores	: 3
apicid		: 17
initial apicid	: 1
fpu		: yes
fpu_exception	: yes
cpuid level	: 13
wp		: yes
flags		: fpu vme de pse tsc msr pae mce cx8 apic sep mtrr pge mca cmov pat pse36 clflush mmx fxsr sse sse2 ht syscall nx mmxext fxsr_opt pdpe1gb rdtscp lm constant_tsc rep_good nopl nonstop_tsc extd_apicid aperfmperf pni pclmulqdq monitor ssse3 cx16 sse4_1 sse4_2 popcnt aes xsave avx lahf_lm cmp_legacy svm extapic cr8_legacy abm sse4a misalignsse 3dnowprefetch osvw ibs xop skinit wdt lwp fma4 nodeid_msr topoext perfctr_core perfctr_nb cpb hw_pstate vmmcall arat npt lbrv svm_lock nrip_save tsc_scale vmcb_clean flushbyasid decodeassists pausefilter pfthreshold
bugs		: fxsave_leak sysret_ss_attrs
bogomips	: 6622.70
TLB size	: 1536 4K pages
clflush size	: 64
cache_alignment	: 64
address sizes	: 48 bits physical, 48 bits virtual
power management: ts ttp tm 100mhzsteps hwpstate cpb

processor	: 2
vendor_id	: AuthenticAMD
cpu family	: 21
model		: 1
model name	: AMD FX(tm)-6100 Six-Core Processor
stepping	: 2
microcode	: 0x6000626
cpu MHz		: 1400.000
cache size	: 2048 KB
physical id	: 0
siblings	: 6
core id		: 2
cpu cores	: 3
apicid		: 18
initial apicid	: 2
fpu		: yes
fpu_exception	: yes
cpuid level	: 13
wp		: yes
flags		: fpu vme de pse tsc msr pae mce cx8 apic sep mtrr pge mca cmov pat pse36 clflush mmx fxsr sse sse2 ht syscall nx mmxext fxsr_opt pdpe1gb rdtscp lm constant_tsc rep_good nopl nonstop_tsc extd_apicid aperfmperf pni pclmulqdq monitor ssse3 cx16 sse4_1 sse4_2 popcnt aes xsave avx lahf_lm cmp_legacy svm extapic cr8_legacy abm sse4a misalignsse 3dnowprefetch osvw ibs xop skinit wdt lwp fma4 nodeid_msr topoext perfctr_core perfctr_nb cpb hw_pstate vmmcall arat npt lbrv svm_lock nrip_save tsc_scale vmcb_clean flushbyasid decodeassists pausefilter pfthreshold
bugs		: fxsave_leak sysret_ss_attrs
bogomips	: 6622.70
TLB size	: 1536 4K pages
clflush size	: 64
cache_alignment	: 64
address sizes	: 48 bits physical, 48 bits virtual
power management: ts ttp tm 100mhzsteps hwpstate cpb

processor	: 3
vendor_id	: AuthenticAMD
cpu family	: 21
model		: 1
model name	: AMD FX(tm)-6100 Six-Core Processor
stepping	: 2
microcode	: 0x6000626
cpu MHz		: 3300.000
cache size	: 2048 KB
physical id	: 0
siblings	: 6
core id		: 3
cpu cores	: 3
apicid		: 19
initial apicid	: 3
fpu		: yes
fpu_exception	: yes
cpuid level	: 13
wp		: yes
flags		: fpu vme de pse tsc msr pae mce cx8 apic sep mtrr pge mca cmov pat pse36 clflush mmx fxsr sse sse2 ht syscall nx mmxext fxsr_opt pdpe1gb rdtscp lm constant_tsc rep_good nopl nonstop_tsc extd_apicid aperfmperf pni pclmulqdq monitor ssse3 cx16 sse4_1 sse4_2 popcnt aes xsave avx lahf_lm cmp_legacy svm extapic cr8_legacy abm sse4a misalignsse 3dnowprefetch osvw ibs xop skinit wdt lwp fma4 nodeid_msr topoext perfctr_core perfctr_nb cpb hw_pstate vmmcall arat npt lbrv svm_lock nrip_save tsc_scale vmcb_clean flushbyasid decodeassists pausefilter pfthreshold
bugs		: fxsave_leak sysret_ss_attrs
bogomips	: 6622.70
TLB size	: 1536 4K pages
clflush size	: 64
cache_alignment	: 64
address sizes	: 48 bits physical, 48 bits virtual
power management: ts ttp tm 100mhzsteps hwpstate cpb

processor	: 4
vendor_id	: AuthenticAMD
cpu family	: 21
model		: 1
model name	: AMD FX(tm)-6100 Six-Core Processor
stepping	: 2
microcode	: 0x6000626
cpu MHz		: 2400.000
cache size	: 2048 KB
physical id	: 0
siblings	: 6
core id		: 4
cpu cores	: 3
apicid		: 20
initial apicid	: 4
fpu		: yes
fpu_exception	: yes
cpuid level	: 13
wp		: yes
flags		: fpu vme de pse tsc msr pae mce cx8 apic sep mtrr pge mca cmov pat pse36 clflush mmx fxsr sse sse2 ht syscall nx mmxext fxsr_opt pdpe1gb rdtscp lm constant_tsc rep_good nopl nonstop_tsc extd_apicid aperfmperf pni pclmulqdq monitor ssse3 cx16 sse4_1 sse4_2 popcnt aes xsave avx lahf_lm cmp_legacy svm extapic cr8_legacy abm sse4a misalignsse 3dnowprefetch osvw ibs xop skinit wdt lwp fma4 nodeid_msr topoext perfctr_core perfctr_nb cpb hw_pstate vmmcall arat npt lbrv svm_lock nrip_save tsc_scale vmcb_clean flushbyasid decodeassists pausefilter pfthreshold
bugs		: fxsave_leak sysret_ss_attrs
bogomips	: 6622.70
TLB size	: 1536 4K pages
clflush size	: 64
cache_alignment	: 64
address sizes	: 48 bits physical, 48 bits virtual
power management: ts ttp tm 100mhzsteps hwpstate cpb

processor	: 5
vendor_id	: AuthenticAMD
cpu family	: 21
model		: 1
model name	: AMD FX(tm)-6100 Six-Core Processor
stepping	: 2
microcode	: 0x6000626
cpu MHz		: 3000.000
cache size	: 2048 KB
physical id	: 0
siblings	: 6
core id		: 5
cpu cores	: 3
apicid		: 21
initial apicid	: 5
fpu		: yes
fpu_exception	: yes
cpuid level	: 13
wp		: yes
flags		: fpu vme de pse tsc msr pae mce cx8 apic sep mtrr pge mca cmov pat pse36 clflush mmx fxsr sse sse2 ht syscall nx mmxext fxsr_opt pdpe1gb rdtscp lm constant_tsc rep_good nopl nonstop_tsc extd_apicid aperfmperf pni pclmulqdq monitor ssse3 cx16 sse4_1 sse4_2 popcnt aes xsave avx lahf_lm cmp_legacy svm extapic cr8_legacy abm sse4a misalignsse 3dnowprefetch osvw ibs xop skinit wdt lwp fma4 nodeid_msr topoext perfctr_core perfctr_nb cpb hw_pstate vmmcall arat npt lbrv svm_lock nrip_save tsc_scale vmcb_clean flushbyasid decodeassists pausefilter pfthreshold
bugs		: fxsave_leak sysret_ss_attrs
bogomips	: 6622.70
TLB size	: 1536 4K pages
clflush size	: 64
cache_alignment	: 64
address sizes	: 48 bits physical, 48 bits virtual
power management: ts ttp tm 100mhzsteps hwpstate cpb



Memory: 4k page, physical 8120724k(906512k free), swap 7999484k(7905808k free)

vm_info: OpenJDK 64-Bit Server VM (25.91-b14) for linux-amd64 JRE (1.8.0_91-8u91-b14-3ubuntu1~16.04.1-b14), built on Jul 21 2016 04:13:34 by "buildd" with gcc 5.3.1 20160413

time: Sun Oct  2 21:03:04 2016
elapsed time: 2 seconds (0d 0h 0m 2s)

